Data wrangling 2
…
---

## Count things

.tiny-font[

```r
penguins
```

```
# A tibble: 344 x 8
   species island bill_length_mm bill_depth_mm flipper_length_… body_mass_g
   <fct>   <fct>           <dbl>         <dbl>            <int>       <int>
 1 Adelie  Torge…           39.1          18.7              181        3750
 2 Adelie  Torge…           39.5          17.4              186        3800
 3 Adelie  Torge…           40.3          18                195        3250
 4 Adelie  Torge…           NA            NA                 NA          NA
 5 Adelie  Torge…           36.7          19.3              193        3450
 6 Adelie  Torge…           39.3          20.6              190        3650
 7 Adelie  Torge…           38.9          17.8              181        3625
 8 Adelie  Torge…           39.2          19.6              195        4675
 9 Adelie  Torge…           34.1          18.1              193        3475
10 Adelie  Torge…           42            20.2              190        4250
# … with 334 more rows, and 2 more variables: sex <fct>, year <int>
```
…
---

## Use the pipe to build analysis pipelines

.tiny-font[

```r
penguins %>%
  filter(species == "Adelie")
```

```
# A tibble: 152 x 8
   species island bill_length_mm bill_depth_mm flipper_length_… body_mass_g
   <fct>   <fct>           <dbl>         <dbl>            <int>       <int>
 1 Adelie  Torge…           39.1          18.7              181        3750
 2 Adelie  Torge…           39.5          17.4              186        3800
 3 Adelie  Torge…           40.3          18                195        3250
 4 Adelie  Torge…           NA            NA                 NA          NA
 5 Adelie  Torge…           36.7          19.3              193        3450
 6 Adelie  Torge…           39.3          20.6              190        3650
 7 Adelie  Torge…           38.9          17.8              181        3625
 8 Adelie  Torge…           39.2          19.6              195        4675
 9 Adelie  Torge…           34.1          18.1              193        3475
10 Adelie  Torge…           42            20.2              190        4250
# … with 142 more rows, and 2 more variables: sex <fct>, year <int>
```
…
---

## Use the pipe to build analysis pipelines

.tiny-font[

```r
penguins %>%
  filter(species == "Adelie") %>%
  select(island, sex)
```

```
# A tibble: 152 x 2
   island    sex   
   <fct>     <fct> 
 1 Torgersen male  
 2 Torgersen female
 3 Torgersen female
 4 Torgersen <NA>  
 5 Torgersen female
 6 Torgersen male  
 7 Torgersen female
 8 Torgersen male  
 9 Torgersen <NA>  
10 Torgersen <NA>  
# … with 142 more rows
```
…
---

## Example: flipper length in cm

.tiny-font[

```r
penguins %>%
  select(species, island, flipper_length_mm)
```

```
# A tibble: 344 x 3
   species island    flipper_length_mm
   <fct>   <fct>                 <int>
 1 Adelie  Torgersen               181
 2 Adelie  Torgersen               186
 3 Adelie  Torgersen               195
 4 Adelie  Torgersen                NA
 5 Adelie  Torgersen               193
 6 Adelie  Torgersen               190
 7 Adelie  Torgersen               181
 8 Adelie  Torgersen               195
 9 Adelie  Torgersen               193
10 Adelie  Torgersen               190
# … with 334 more rows
```
…
---

## Example: flipper length in cm

.tiny-font[

```r
penguins %>%
  select(species, island, flipper_length_mm) %>%
  mutate(flipper_length_cm = flipper_length_mm / 10)
```

```
# A tibble: 344 x 4
   species island    flipper_length_mm flipper_length_cm
   <fct>   <fct>                 <int>             <dbl>
 1 Adelie  Torgersen               181              18.1
 2 Adelie  Torgersen               186              18.6
 3 Adelie  Torgersen               195              19.5
 4 Adelie  Torgersen                NA              NA  
 5 Adelie  Torgersen               193              19.3
 6 Adelie  Torgersen               190              19  
 7 Adelie  Torgersen               181              18.1
 8 Adelie  Torgersen               195              19.5
 9 Adelie  Torgersen               193              19.3
10 Adelie  Torgersen               190              19  
# … with 334 more rows
```
…
## Make multiple columns at once

.tiny-font[

```r
penguins %>%
  select(species, island, flipper_length_mm) %>%
  mutate(
    flipper_length_cm = flipper_length_mm / 10,  # <- notice the comma
    flipper_length_in = flipper_length_mm / 25.4
  )
```

```
# A tibble: 344 x 5
   species island    flipper_length_mm flipper_length_cm flipper_length_in
   <fct>   <fct>                 <int>             <dbl>             <dbl>
 1 Adelie  Torgersen               181              18.1              7.13
 2 Adelie  Torgersen               186              18.6              7.32
 3 Adelie  Torgersen               195              19.5              7.68
 4 Adelie  Torgersen                NA              NA               NA   
 5 Adelie  Torgersen               193              19.3              7.60
 6 Adelie  Torgersen               190              19                7.48
 7 Adelie  Torgersen               181              18.1              7.13
 8 Adelie  Torgersen               195              19.5              7.68
 9 Adelie  Torgersen               193              19.3              7.60
10 Adelie  Torgersen               190              19                7.48
# … with 334 more rows
```
…
