Getting to know your data 1
…
```r
NCbirths <- read_csv("https://wilkelab.org/SDS375/datasets/NCbirths.csv")
```
]

--

.tiny-font[

```r
NCbirths
```

```
# A tibble: 1,450 × 15
      ID Plural   Sex MomAge Weeks Marital RaceMom HispMom Gained Smoke BirthWeightOz
   <dbl>  <dbl> <dbl>  <dbl> <dbl>   <dbl>   <dbl> <chr>   <chr>  <dbl>         <dbl>
 1     1      1     1     32    40       1       1 N       38         0           111
 2     2      1     2     32    37       1       1 N       34         0           116
 3     3      1     1     27    39       1       1 N       12         0           138
 4     4      1     1     27    39       1       1 N       15         0           136
 5     5      1     1     25    39       1       1 N       32         0           121
 6     6      1     1     28    43       1       1 N       32         0           117
 7     7      1     2     25    39       1       1 N       75         0           143
 8     8      1     2     15    42       2       1 N       25         0           113
 9     9      1     2     21    39       1       1 N       28         0           120
10    10      1     2     27    40       2       1 N       37         0           124
# … with 1,440 more rows, and 4 more variables: BirthWeightGm <dbl>, Low <dbl>, Premie <dbl>,
#   MomRace <chr>
```
…
--

.tiny-font[

```r
NCbirths  # check entire data frame
```

```
# A tibble: 1,450 × 15
      ID Plural   Sex MomAge Weeks Marital RaceMom HispMom Gained Smoke BirthWeightOz
   <dbl>  <dbl> <dbl>  <dbl> <dbl>   <dbl>   <dbl> <chr>    <dbl> <dbl>         <dbl>
 1     1      1     1     32    40       1       1 N           38     0           111
 2     2      1     2     32    37       1       1 N           34     0           116
 3     3      1     1     27    39       1       1 N           12     0           138
 4     4      1     1     27    39       1       1 N           15     0           136
 5     5      1     1     25    39       1       1 N           32     0           121
 6     6      1     1     28    43       1       1 N           32     0           117
 7     7      1     2     25    39       1       1 N           75     0           143
 8     8      1     2     15    42       2       1 N           25     0           113
 9     9      1     2     21    39       1       1 N           28     0           120
10    10      1     2     27    40       2       1 N           37     0           124
# … with 1,440 more rows, and 4 more variables: BirthWeightGm <dbl>, Low <dbl>, Premie <dbl>,
#   MomRace <chr>
```
…
