Data wrangling 1
…
# Pick rows from a table: `filter()`

---

# Filter out penguins of species Gentoo

```r
penguins %>%
  filter(species == "Gentoo")
```

```
# A tibble: 124 x 8
   species island bill_length_mm bill_depth_mm flipper_length_mm body_mass_g sex     year
   <fct>   <fct>           <dbl>         <dbl>             <int>       <int> <fct>  <int>
 1 Gentoo  Biscoe           46.1          13.2               211        4500 female  2007
 2 Gentoo  Biscoe           50            16.3               230        5700 male    2007
 3 Gentoo  Biscoe           48.7          14.1               210        4450 female  2007
 4 Gentoo  Biscoe           50            15.2               218        5700 male    2007
 5 Gentoo  Biscoe           47.6          14.5               215        5400 male    2007
 6 Gentoo  Biscoe           46.5          13.5               210        4550 female  2007
 7 Gentoo  Biscoe           45.4          14.6               211        4800 female  2007
 8 Gentoo  Biscoe           46.7          15.3               219        5200 male    2007
 9 Gentoo  Biscoe           43.3          13.4               209        4400 female  2007
10 Gentoo  Biscoe           46.8          15.4               215        5150 male    2007
# … with 114 more rows
```

---

# Filter out penguins with bill length > 50 mm

```r
penguins %>%
  filter(bill_length_mm > 50)
```

```
# A tibble: 52 x 8
   species island bill_length_mm bill_depth_mm flipper_length_mm body_mass_g sex    year
   <fct>   <fct>           <dbl>         <dbl>             <int>       <int> <fct> <int>
 1 Gentoo  Biscoe           50.2          14.3               218        5700 male   2007
 2 Gentoo  Biscoe           59.6          17                 230        6050 male   2007
 3 Gentoo  Biscoe           50.5          15.9               222        5550 male   2008
 4 Gentoo  Biscoe           50.5          15.9               225        5400 male   2008
 5 Gentoo  Biscoe           50.1          15                 225        5000 male   2008
 6 Gentoo  Biscoe           50.4          15.3               224        5550 male   2008
 7 Gentoo  Biscoe           54.3          15.7               231        5650 male   2008
 8 Gentoo  Biscoe           50.7          15                 223        5550 male   2008
 9 Gentoo  Biscoe           51.1          16.3               220        6000 male   2008
10 Gentoo  Biscoe           52.5          15.6               221        5450 male   2009
# … with 42 more rows
```
…
# Sort the rows in a table: `arrange()`

---

# Sort penguins by bill length, ascending

```r
penguins %>%
  arrange(bill_length_mm)
```

```
# A tibble: 344 x 8
   species island    bill_length_mm bill_depth_mm flipper_length_mm body_mass_g sex     year
   <fct>   <fct>              <dbl>         <dbl>             <int>       <int> <fct>  <int>
 1 Adelie  Dream               32.1          15.5               188        3050 female  2009
 2 Adelie  Dream               33.1          16.1               178        2900 female  2008
 3 Adelie  Torgersen           33.5          19                 190        3600 female  2008
 4 Adelie  Dream               34            17.1               185        3400 female  2008
 5 Adelie  Torgersen           34.1          18.1               193        3475 <NA>    2007
 6 Adelie  Torgersen           34.4          18.4               184        3325 female  2007
 7 Adelie  Biscoe              34.5          18.1               187        2900 female  2008
 8 Adelie  Torgersen           34.6          21.1               198        4400 male    2007
 9 Adelie  Torgersen           34.6          17.2               189        3200 female  2008
10 Adelie  Biscoe              35            17.9               190        3450 female  2008
# … with 334 more rows
```

---

# Sort penguins by bill length, descending

```r
penguins %>%
  arrange(desc(bill_length_mm))
```

```
# A tibble: 344 x 8
   species   island bill_length_mm bill_depth_mm flipper_length_mm body_mass_g sex     year
   <fct>     <fct>           <dbl>         <dbl>             <int>       <int> <fct>  <int>
 1 Gentoo    Biscoe           59.6          17                 230        6050 male    2007
 2 Chinstrap Dream            58            17.8               181        3700 female  2007
 3 Gentoo    Biscoe           55.9          17                 228        5600 male    2009
 4 Chinstrap Dream            55.8          19.8               207        4000 male    2009
 5 Gentoo    Biscoe           55.1          16                 230        5850 male    2009
 6 Gentoo    Biscoe           54.3          15.7               231        5650 male    2008
 7 Chinstrap Dream            54.2          20.8               201        4300 male    2008
 8 Chinstrap Dream            53.5          19.9               205        4500 male    2008
 9 Gentoo    Biscoe           53.4          15.8               219        5500 male    2009
10 Chinstrap Dream            52.8          20                 205        4550 male    2008
# … with 334 more rows
```
