Redundant coding, text annotations
…
---

## 1. Secondary axis trick

.pull-left[

The raw input data:
.tiny-font[

```r
tech_stocks
```

```
# A tibble: 9,569 × 3
   company  date       price_indexed
   <chr>    <date>             <dbl>
 1 Alphabet 2017-06-02          342.
 2 Alphabet 2017-06-01          339.
 3 Alphabet 2017-05-31          338.
 4 Alphabet 2017-05-30          342.
 5 Alphabet 2017-05-26          341.
 6 Alphabet 2017-05-25          340.
 7 Alphabet 2017-05-24          335.
 8 Alphabet 2017-05-23          333.
 9 Alphabet 2017-05-22          330.
10 Alphabet 2017-05-19          327.
# … with 9,559 more rows
```
…
