Functions and functional programming
…
Introduction

In this worksheet, we will discuss elements of functional programming in R.

We will be using the R package tidyverse for its functional programming features including map(), nest(), unnest(), etc. The palmerpenguins package provides the penguins dataset.

# load required libraries
library(tidyverse)
library(palmerpenguins)

We will be working with the dataset penguins containing data on individual penguins on Antarctica.

penguins

# A tibble: 344 × 8
   species island    bill_length_mm bill_depth_mm flipper_length_mm body_mass_g
   <fct>   <fct>              <dbl>         <dbl>             <int>       <int>
 1 Adelie  Torgersen           39.1          18.7               181        3750
 2 Adelie  Torgersen           39.5          17.4               186        3800
 3 Adelie  Torgersen           40.3          18                 195        3250
 4 Adelie  Torgersen           NA            NA                  NA          NA
 5 Adelie  Torgersen           36.7          19.3               193        3450
 6 Adelie  Torgersen           39.3          20.6               190        3650
 7 Adelie  Torgersen           38.9          17.8               181        3625
 8 Adelie  Torgersen           39.2          19.6               195        4675
 9 Adelie  Torgersen           34.1          18.1               193        3475
10 Adelie  Torgersen           42            20.2               190        4250
# … with 334 more rows, and 2 more variables: sex <fct>, year <int>
…
The specification data = -species means “create a new column called data and move everything into this column except the contents of the species column”. The nest() function will automatically generate exactly one row for each unique combination of data values that are not being nested. Therefore, we end up with three rows, one for each species.

The data column is a list column, and we can access individual values in it via list indexing, i.e., double square brackets. So, data[[1]] is the first nested table, data[[2]] is the second nested table, and so on. For example, the following code extracts all the data for Gentoo penguins.

penguins_nested <- penguins %>%
  nest(data = -species)

penguins_nested$data[[2]] # data table for Gentoo penguins

# A tibble: 124 × 7
   island bill_length_mm bill_depth_mm flipper_length_mm body_mass_g sex    year
   <fct>           <dbl>         <dbl>             <int>       <int> <fct> <int>
 1 Biscoe           46.1          13.2               211        4500 fema…  2007
 2 Biscoe           50            16.3               230        5700 male   2007
 3 Biscoe           48.7          14.1               210        4450 fema…  2007
 4 Biscoe           50            15.2               218        5700 male   2007
 5 Biscoe           47.6          14.5               215        5400 male   2007
 6 Biscoe           46.5          13.5               210        4550 fema…  2007
 7 Biscoe           45.4          14.6               211        4800 fema…  2007
 8 Biscoe           46.7          15.3               219        5200 male   2007
 9 Biscoe           43.3          13.4               209        4400 fema…  2007
10 Biscoe           46.8          15.4               215        5150 male   2007
# … with 114 more rows
…
penguins %>%
  nest(data = ___)

penguins %>%
  nest(data = -c(species, island))

To unnest, we use the function unnest(). Its argument cols takes the name of the column to be unnested. For example, if we nest into the data column, as we have done in all examples so far, then cols = data unnests this column.

penguins_nested <- penguins %>%
  nest(data = -species)

penguins_nested %>%
  unnest(cols = data)

# A tibble: 344 × 8
   species island    bill_length_mm bill_depth_mm flipper_length_mm body_mass_g
   <fct>   <fct>              <dbl>         <dbl>             <int>       <int>
 1 Adelie  Torgersen           39.1          18.7               181        3750
 2 Adelie  Torgersen           39.5          17.4               186        3800
 3 Adelie  Torgersen           40.3          18                 195        3250
 4 Adelie  Torgersen           NA            NA                  NA          NA
 5 Adelie  Torgersen           36.7          19.3               193        3450
 6 Adelie  Torgersen           39.3          20.6               190        3650
 7 Adelie  Torgersen           38.9          17.8               181        3625
 8 Adelie  Torgersen           39.2          19.6               195        4675
 9 Adelie  Torgersen           34.1          18.1               193        3475
10 Adelie  Torgersen           42            20.2               190        4250
# … with 334 more rows, and 2 more variables: sex <fct>, year <int>
…
