Project 1 Example Solution
…
Project 1 Example Solution

Claus O. Wilke, EID

This is the dataset you will be working with:

NCbirths <- read_csv("https://wilkelab.org/classes/SDS348/data_sets/NCbirths.csv")

NCbirths

## # A tibble: 1,409 x 10
##    Plural   Sex MomAge Weeks Gained Smoke BirthWeightGm   Low Premie Marital
##     <dbl> <dbl>  <dbl> <dbl>  <dbl> <dbl>         <dbl> <dbl>  <dbl>   <dbl>
##  1      1     1     32    40     38     0         3147.     0      0       0
##  2      1     2     32    37     34     0         3289.     0      0       0
##  3      1     1     27    39     12     0         3912.     0      0       0
##  4      1     1     27    39     15     0         3856.     0      0       0
##  5      1     1     25    39     32     0         3430.     0      0       0
##  6      1     1     28    43     32     0         3317.     0      0       0
##  7      1     2     25    39     75     0         4054.     0      0       0
##  8      1     2     15    42     25     0         3204.     0      0       1
##  9      1     2     21    39     28     0         3402      0      0       0
## 10      1     2     27    40     37     0         3515.     0      0       1
## #  with 1,399 more rows
…
