Data wrangling 2
…
This function subdivides the penguins dataset into subsets for each species and then calculates the number n for each subset, which is the number of observations in each subset.

The function count() here does all the work for us, but what if instead of counting we wanted to calculate the mean weight of the penguins for each species, or calculate the mean weight and count at the same time? We need a general framework that allows us to do these kinds of calculations with maximum flexibility.

The tidyverse approach is to first group a dataset with group_by() and then to calculate grouped summaries with summarize().

Grouping

Let’s first consider just grouping. If we look at the raw R output of just the penguins table or the penguins table after running it through group_by(species), we see that the table is the same, except in the second case there is a line # Groups:   species [3] which indicates that the table is grouped by species and there are three groups. (Here, we need to pipe the tables into the print() function to see the raw R output instead of a formatted table that would hide the grouping information.)

penguins %>%
  print()

# A tibble: 344 x 8
   species island bill_length_mm bill_depth_mm flipper_length_… body_mass_g
   <fct>   <fct>           <dbl>         <dbl>            <int>       <int>
 1 Adelie  Torge…           39.1          18.7              181        3750
 2 Adelie  Torge…           39.5          17.4              186        3800
 3 Adelie  Torge…           40.3          18                195        3250
 4 Adelie  Torge…           NA            NA                 NA          NA
 5 Adelie  Torge…           36.7          19.3              193        3450
 6 Adelie  Torge…           39.3          20.6              190        3650
 7 Adelie  Torge…           38.9          17.8              181        3625
 8 Adelie  Torge…           39.2          19.6              195        4675
 9 Adelie  Torge…           34.1          18.1              193        3475
10 Adelie  Torge…           42            20.2              190        4250
# … with 334 more rows, and 2 more variables: sex <fct>, year <int>

penguins %>%
  group_by(species) %>%
  print()

# A tibble: 344 x 8
# Groups:   species [3]
   species island bill_length_mm bill_depth_mm flipper_length_… body_mass_g
   <fct>   <fct>           <dbl>         <dbl>            <int>       <int>
 1 Adelie  Torge…           39.1          18.7              181        3750
 2 Adelie  Torge…           39.5          17.4              186        3800
 3 Adelie  Torge…           40.3          18                195        3250
 4 Adelie  Torge…           NA            NA                 NA          NA
 5 Adelie  Torge…           36.7          19.3              193        3450
 6 Adelie  Torge…           39.3          20.6              190        3650
 7 Adelie  Torge…           38.9          17.8              181        3625
 8 Adelie  Torge…           39.2          19.6              195        4675
 9 Adelie  Torge…           34.1          18.1              193        3475
10 Adelie  Torge…           42            20.2              190        4250
# … with 334 more rows, and 2 more variables: sex <fct>, year <int>

We can also group by multiple data columns at once, and we can undo any grouping with ungroup().

penguins %>%
  group_by(species, island) %>%
  print()

# A tibble: 344 x 8
# Groups:   species, island [5]
   species island bill_length_mm bill_depth_mm flipper_length_… body_mass_g
   <fct>   <fct>           <dbl>         <dbl>            <int>       <int>
 1 Adelie  Torge…           39.1          18.7              181        3750
 2 Adelie  Torge…           39.5          17.4              186        3800
 3 Adelie  Torge…           40.3          18                195        3250
 4 Adelie  Torge…           NA            NA                 NA          NA
 5 Adelie  Torge…           36.7          19.3              193        3450
 6 Adelie  Torge…           39.3          20.6              190        3650
 7 Adelie  Torge…           38.9          17.8              181        3625
 8 Adelie  Torge…           39.2          19.6              195        4675
 9 Adelie  Torge…           34.1          18.1              193        3475
10 Adelie  Torge…           42            20.2              190        4250
# … with 334 more rows, and 2 more variables: sex <fct>, year <int>

penguins %>%
  group_by(species) %>%
  ungroup() %>%
  print()

# A tibble: 344 x 8
   species island bill_length_mm bill_depth_mm flipper_length_… body_mass_g
   <fct>   <fct>           <dbl>         <dbl>            <int>       <int>
 1 Adelie  Torge…           39.1          18.7              181        3750
 2 Adelie  Torge…           39.5          17.4              186        3800
 3 Adelie  Torge…           40.3          18                195        3250
 4 Adelie  Torge…           NA            NA                 NA          NA
 5 Adelie  Torge…           36.7          19.3              193        3450
 6 Adelie  Torge…           39.3          20.6              190        3650
 7 Adelie  Torge…           38.9          17.8              181        3625
 8 Adelie  Torge…           39.2          19.6              195        4675
 9 Adelie  Torge…           34.1          18.1              193        3475
10 Adelie  Torge…           42            20.2              190        4250
# … with 334 more rows, and 2 more variables: sex <fct>, year <int>
…
