Visualizing geospatial data
…
The dataset texas_counties holds information about how many people lived in Texas counties in 2010, as well as the size of each county (column area). The column popratio is the ratio of the number of inhabitants to the median across all counties. The column FIPS contains a five-digit id code that uniquely represents each county.

texas_counties

# A tibble: 254 x 5
   FIPS  county    pop2010  area popratio
   <chr> <chr>       <dbl> <dbl>    <dbl>
 1 48001 Anderson    58458 1063.    3.18 
 2 48003 Andrews     14786 1501.    0.804
 3 48005 Angelina    86771  798.    4.72 
 4 48007 Aransas     23158  252.    1.26 
 5 48009 Archer       9054  903.    0.493
 6 48011 Armstrong    1901  909.    0.103
 7 48013 Atascosa    44911 1220.    2.44 
 8 48015 Austin      28417  647.    1.55 
 9 48017 Bailey       7165  827.    0.390
10 48019 Bandera     20485  791.    1.11 
# … with 244 more rows
…
