Homework 5
…
Homework 5

Enter your name and EID here

This homework is due on March 22, 2021 at 11:00pm. Please submit as a pdf file on Canvas.

For both problems in this homework, we will work with the internet dataset. It contains the number of internet users over time for 20 select countries. Internet users are reported as percentages.

internet <- read_csv("https://wilkelab.org/SDS375/datasets/internet.csv")
internet

## # A tibble: 460 x 3
##    country         year    users
##    <chr>          <dbl>    <dbl>
##  1 Argentina       1994 0.0437  
##  2 Brazil          1994 0.0377  
##  3 Canada          1994 2.38    
##  4 Chile           1994 0.141   
##  5 China           1994 0.00117 
##  6 Germany         1994 0.923   
##  7 Algeria         1994 0.000361
##  8 France          1994 0.900   
##  9 United Kingdom  1994 1.04    
## 10 India           1994 0.00107 
## #  with 450 more rows
…
